{
    "prefix": "[)>@06",
    "label_version": {
        "id": "@12S",
        "val": "0002"
    },
    "part_no": {
        "id": "@P",
        "val": "7182000096"
    },
    "man_part_no": {
        "id": "@1P",
        "val": "D27110"
    },
    "ord_code": {
        "id": "@31P",
        "val": "D27110"
    },
    "man_no": {
        "id": "@12V",
        "val": "687935891"
    },
    "man_loc": {
        "id": "@10V",
        "val": "KOR-YONGIN1"
    },
    "index": {
        "id": "@2P",
        "val": "N"
    },
    "add_info": {
        "id": "@20P",
        "val": ""
    },
    "man_date": {
        "id": "@6D",
        "val": "20190306"
    },
    "exp_date": {
        "id": "@14D",
        "val": "20210305"
    },
    "rohs": {
        "id": "@30P",
        "val": "Y"
    },
    "ms_level": {
        "id": "@Z",
        "val": "N"
    },
    "purchase": {
        "id": "@K",
        "val": "55390588001"
    },
    "shipping_note": {
        "id": "@16K",
        "val": "5091"
    },
    "supplier_id": {
        "id": "@V",
        "val": "97946912"
    },
    "package_id": {
        "id": "@3S",
        "val": "S000000000001"
    },
    "quantity": {
        "id": "@Q",
        "val": "20KGM000"
    },
    "batch_counter": {
        "id": "@20T",
        "val": "1"
    },
    "batch_no_1": {
        "id": "@1T",
        "val": "TESTVALUE"
    },
    "batch_no_2": {
        "id": "@2T",
        "val": ""
    },
    "supplier_data": {
        "id": "@1Z",
        "val": ""
    },
    "suffix": "@@"
}